adding line - Fri Dec 29 18:53:35 EST 2017
adding line - Fri Dec 29 21:43:25 EST 2017
adding line - Fri Dec 29 22:14:03 EST 2017
adding line - Fri Dec 29 22:17:12 EST 2017
adding line - Fri Dec 29 22:19:39 EST 2017
adding line - Tue Jan  2 09:34:09 EST 2018
adding line - Tue Jan  2 11:41:27 EST 2018
adding line - Tue Jan 16 08:55:10 EST 2018
